{
"nodes": 
[{ "data": { "id": "r0", "start": "yes", "type": "start" } },
{ "data": { "id": "r1" } },
{ "data": { "id": "r2" } },
{ "data": { "id": "r3" } },
{ "data": { "id": "r4" } },
{ "data": { "id": "r5" } },
{ "data": { "id": "r6" } },
{ "data": { "id": "r7" } },
{ "data": { "id": "r8" } },
{ "data": { "id": "r9" } },
{ "data": { "id": "r10" } },
{ "data": { "id": "r11" } },
{ "data": { "id": "r12" } },
{ "data": { "id": "r13" } },
{ "data": { "id": "r14", "end": "yes", "type": "end" } }],
"edges":
[{ "data": { "id": "e0", "source": "r0", "target": "r12" } },
{ "data": { "id": "e1", "source": "r0", "target": "r6" } },
{ "data": { "id": "e2", "source": "r1", "target": "r9" } },
{ "data": { "id": "e3", "source": "r1", "target": "r7" } },
{ "data": { "id": "e4", "source": "r1", "target": "r6" } },
{ "data": { "id": "e5", "source": "r2", "target": "r10" } },
{ "data": { "id": "e6", "source": "r2", "target": "r8" } },
{ "data": { "id": "e7", "source": "r2", "target": "r7" } },
{ "data": { "id": "e8", "source": "r3", "target": "r8" } },
{ "data": { "id": "e9", "source": "r3", "target": "r5" } },
{ "data": { "id": "e10", "source": "r4", "target": "r11" } },
{ "data": { "id": "e11", "source": "r4", "target": "r9" } },
{ "data": { "id": "e12", "source": "r5", "target": "r12" } },
{ "data": { "id": "e13", "source": "r5", "target": "r3" } },
{ "data": { "id": "e14", "source": "r6", "target": "r1" } },
{ "data": { "id": "e15", "source": "r6", "target": "r0" } },
{ "data": { "id": "e16", "source": "r7", "target": "r2" } },
{ "data": { "id": "e17", "source": "r7", "target": "r1" } },
{ "data": { "id": "e18", "source": "r8", "target": "r2" } },
{ "data": { "id": "e19", "source": "r8", "target": "r3" } },
{ "data": { "id": "e20", "source": "r9", "target": "r4" } },
{ "data": { "id": "e21", "source": "r9", "target": "r1" } },
{ "data": { "id": "e22", "source": "r10", "target": "r14" } },
{ "data": { "id": "e23", "source": "r10", "target": "r2" } },
{ "data": { "id": "e24", "source": "r11", "target": "r13" } },
{ "data": { "id": "e25", "source": "r11", "target": "r4" } },
{ "data": { "id": "e26", "source": "r12", "target": "r5" } },
{ "data": { "id": "e27", "source": "r12", "target": "r0" } },
{ "data": { "id": "e28", "source": "r13", "target": "r14" } },
{ "data": { "id": "e29", "source": "r13", "target": "r11" } },
{ "data": { "id": "e30", "source": "r14", "target": "r13" } },
{ "data": { "id": "e31", "source": "r14", "target": "r10" } }],
"paths":
[{ "id": 0, "ants": 3, "nodes": ["r0", "r12", "r5", "r3", "r8", "r2", "r10", "r14"] },
{ "id": 1, "ants": 3, "nodes": ["r0", "r6", "r1", "r9", "r4", "r11", "r13", "r14"] }]
}
